{
    "title": "Joe Review",
    "meta": "This is a meta",
    "canonical": "/review/joe",
    "selection": "page",
    "category": "character",
    "rating": "2",
    "summary": "Joe the best x 2",
    "publishedDate": "06/15/19"
}