{
    "title": "Kate Review",
    "meta": "This is a meta",
    "canonical": "/review/kate",
    "selection": "page",
    "category": "character",
    "rating": "2",
    "summary": "Kate the best x 2",
    "publishedDate": "06/15/10"
}