{
    "review": [
        {
            "title": "Joe Review",
            "meta": "This is a meta",
            "canonical": "/review/joe",
            "selection": "page",
            "category": "character",
            "rating": "2",
            "summary": "Joe the best x 2",
            "publishedDate": "06/15/19"
        },
        {
            "title": "Kate Review",
            "meta": "This is a meta",
            "canonical": "/review/kate",
            "selection": "page",
            "category": "character",
            "rating": "2",
            "summary": "Kate the best x 2",
            "publishedDate": "06/15/10"
        }
    ]
}